products_id_ptc;categories_id_ptc;
9;4
10;2
11;2
12;2
13;2
14;4
15;4
16;4
17;4
18;4
19;4
20;4
21;4
22;4
23;4
24;5
25;5
26;5
27;5
28;5
29;5
30;5
31;5
32;5
33;5
34;5
35;5
36;5
37;5
38;5
39;5
40;5
41;5
42;5
43;5
44;5
45;5
46;5
47;5
48;5
49;5
50;6
51;6
52;6
53;6
54;6
55;6
56;6
57;6
58;6
59;6
60;6
61;6
62;7
62;223
63;7
63;223
64;7
64;223
65;7
65;223
66;7
66;223
67;7
67;223
68;10
69;10
70;10
71;10
72;10
73;10
74;10
75;10
76;10
77;10
78;10
79;10
80;10
81;10
82;10
83;11
84;11
85;11
86;11
87;11
88;11
89;11
90;11
91;11
92;11
93;10
94;10
95;10
96;14
97;14
98;14
99;14
100;14
101;14
102;14
103;14
104;14
105;14
106;14
107;14
108;13
109;13
110;13
111;13
112;13
113;13
114;13
115;13
116;13
117;13
118;17
119;17
120;17
121;17
122;17
123;17
124;17
125;17
126;17
127;17
128;17
129;17
130;17
130;71
131;17
132;17
133;17
134;17
135;17
136;17
137;17
138;17
139;181
140;18
141;18
142;18
143;18
144;18
145;18
146;18
147;18
148;13
149;20
150;22
151;28
152;28
153;28
154;28
155;28
156;28
157;28
158;28
159;28
160;28
161;28
162;28
163;28
164;28
165;21
166;21
167;21
168;21
169;21
170;21
171;22
172;22
173;22
174;22
175;22
176;22
177;22
178;22
179;22
180;22
181;22
182;22
183;22
184;22
185;22
186;22
187;22
188;22
189;23
190;25
191;25
192;25
193;23
194;23
195;23
196;23
197;23
198;23
199;23
200;23
201;23
202;23
203;23
204;24
205;24
206;24
207;25
208;25
209;25
210;26
210;86
210;256
213;26
213;86
213;256
215;26
215;86
215;256
216;231
217;231
218;231
219;231
220;23
221;23
222;231
223;23
224;231
225;23
226;231
227;33
229;30
230;30
231;30
232;31
233;32
234;32
235;32
237;33
238;33
239;33
240;33
242;40
243;37
243;225
250;43
253;43
254;35
255;39
259;43
261;35
262;35
263;36
264;36
265;39
267;40
268;44
269;35
270;44
271;35
273;35
274;35
276;42
277;42
278;42
279;42
280;42
282;42
284;42
286;42
287;42
289;42
290;42
291;42
292;45
293;45
294;45
295;45
296;45
297;45
298;45
299;45
300;45
302;46
303;46
304;46
305;46
306;46
307;46
308;48
310;48
310;145
311;51
312;51
312;225
313;51
313;225
315;50
316;51
317;49
318;49
320;49
321;51
322;51
323;52
325;52
326;52
327;52
328;52
330;52
332;52
333;56
336;57
337;53
338;54
339;54
340;54
406;58
407;58
408;58
410;58
411;58
412;58
414;58
414;89
415;61
416;61
417;61
418;61
419;61
420;61
421;61
422;61
423;61
424;61
425;61
426;61
427;61
428;61
429;61
430;61
431;61
432;60
433;60
434;63
435;63
436;63
437;63
438;63
439;63
440;63
441;68
442;68
443;68
444;68
445;68
446;68
447;68
448;68
449;68
450;68
451;68
452;68
453;68
454;68
472;62
473;62
474;62
475;65
476;65
477;64
478;64
479;64
480;64
481;69
482;69
483;69
484;69
485;69
486;69
487;69
488;69
489;69
490;69
491;69
492;69
493;69
494;69
495;70
496;70
497;70
498;71
499;74
500;74
501;74
502;74
503;74
504;74
505;74
506;75
507;75
508;75
509;75
510;75
511;81
512;81
513;81
514;81
515;81
516;81
517;81
518;81
519;81
520;81
521;81
522;78
523;78
524;78
525;76
526;76
527;76
528;76
529;72
530;72
531;72
532;72
533;82
534;82
535;77
536;77
537;77
538;77
539;77
540;60
540;79
541;60
541;79
542;60
542;79
543;60
543;79
544;80
544;223
545;80
545;223
546;80
546;223
547;80
547;223
548;80
548;223
549;80
549;223
550;80
550;223
551;81
552;81
553;81
554;81
555;81
556;81
557;81
558;81
559;81
560;85
561;85
562;85
573;85
574;89
575;89
576;89
577;89
578;89
579;89
580;89
580;256
582;89
583;89
584;88
585;88
586;88
587;89
588;89
589;89
591;88
592;89
593;89
594;89
595;89
596;89
597;89
598;89
599;89
600;89
601;89
602;89
603;88
605;225
606;89
607;89
610;89
611;14
611;33
612;90
613;90
614;90
615;90
616;90
617;90
617;256
618;90
620;90
623;90
624;90
628;90
629;56
629;90
630;90
630;280
631;92
632;92
633;92
634;92
635;92
636;92
637;92
638;92
639;92
640;91
641;91
642;91
643;91
644;91
645;91
646;91
647;91
648;91
649;91
650;91
651;91
652;92
653;93
654;93
655;93
656;93
658;93
659;93
660;93
661;93
662;93
663;93
664;93
665;93
666;93
667;93
668;93
669;93
670;93
671;93
673;93
674;93
675;93
676;93
676;290
677;93
678;93
679;93
680;93
681;93
682;93
683;93
684;93
685;93
686;93
687;94
688;94
689;94
690;94
691;94
692;94
693;94
694;94
695;94
696;94
697;94
697;223
698;94
699;94
700;94
701;94
701;223
702;94
703;94
704;94
706;272
707;273
708;271
708;274
709;273
711;272
711;277
712;271
714;272
715;273
715;277
716;272
717;273
717;277
718;274
718;277
719;273
719;277
720;271
720;273
721;271
721;277
722;274
722;277
723;272
723;277
724;273
724;277
725;273
725;277
726;273
726;275
727;276
727;277
728;272
728;277
729;271
729;272
730;276
730;277
731;274
731;277
732;98
733;98
734;98
735;98
736;98
737;98
738;98
739;98
740;99
742;99
743;99
744;99
745;99
745;256
746;99
747;99
748;99
748;256
749;99
750;99
751;99
752;99
753;96
754;96
755;98
755;103
756;99
757;99
757;270
758;99
760;98
760;256
761;99
762;99
764;99
765;99
765;270
766;99
767;99
767;256
768;100
769;100
769;270
771;100
772;100
773;100
774;100
775;252
775;270
776;100
777;100
778;100
779;100
779;270
781;100
782;100
783;101
784;101
785;101
786;101
787;101
787;270
788;101
789;101
790;101
790;270
791;101
792;101
793;102
794;102
795;102
796;102
797;102
798;102
799;102
800;102
801;93
801;102
802;102
803;102
804;102
805;102
807;252
807;270
808;102
808;270
809;252
809;270
811;102
811;270
813;252
813;270
814;102
816;102
816;256
818;103
819;103
819;270
820;103
821;103
822;103
823;103
824;103
825;103
826;103
826;270
827;103
828;103
828;270
829;103
830;103
831;103
831;270
832;103
833;103
834;104
835;104
836;104
837;104
838;104
839;104
840;104
841;104
842;104
843;104
844;104
845;104
846;104
847;104
848;104
849;104
850;104
851;104
852;104
853;104
854;105
855;105
856;105
857;105
858;105
860;105
861;278
862;105
863;105
864;105
865;105
866;105
867;105
868;105
869;105
870;105
871;105
872;105
873;105
874;105
875;105
875;256
876;105
877;252
877;270
878;252
878;270
880;105
881;105
882;105
883;105
883;270
884;252
884;270
885;105
886;107
887;108
888;108
889;108
891;264
892;108
893;108
894;108
895;108
896;106
897;106
898;106
899;106
904;107
906;107
907;108
908;108
908;290
909;106
910;106
911;106
912;106
912;270
913;106
914;106
915;107
915;290
917;107
917;290
918;107
920;107
920;270
921;107
922;107
923;107
924;107
925;107
926;107
927;108
927;275
928;108
929;108
930;108
931;89
931;106
932;108
933;106
934;106
936;106
937;110
938;110
939;110
940;110
941;110
942;110
943;110
944;111
945;111
946;111
947;111
948;111
949;111
950;111
951;111
952;111
953;111
954;111
955;111
956;111
957;111
958;111
959;111
960;111
961;111
962;111
963;111
964;111
965;111
966;111
967;111
968;111
969;111
970;111
971;111
972;111
973;111
974;111
975;111
976;111
977;111
978;111
979;111
980;111
981;111
982;123
982;158
983;123
983;158
984;123
984;158
985;123
985;158
986;126
987;118
987;242
988;119
988;239
989;119
989;239
990;119
990;239
991;119
991;239
992;119
992;239
993;119
993;239
994;119
994;239
995;119
995;239
996;119
996;239
997;119
997;239
998;119
998;239
999;119
999;239
1000;112
1001;114
1002;114
1003;114
1004;114
1005;114
1006;114
1007;114
1008;114
1009;114
1010;114
1011;114
1012;114
1013;114
1014;114
1015;114
1016;114
1017;114
1018;114
1019;114
1020;114
1021;114
1022;114
1023;114
1024;127
1025;127
1026;127
1027;127
1028;127
1029;120
1030;120
1032;126
1033;126
1034;126
1035;126
1036;117
1037;117
1038;126
1039;126
1040;126
1041;118
1042;118
1043;118
1044;118
1045;118
1045;256
1046;118
1046;121
1047;118
1047;256
1048;124
1049;124
1050;124
1051;124
1052;124
1054;124
1055;124
1056;124
1057;127
1059;130
1060;130
1061;130
1062;130
1063;130
1067;129
1068;129
1069;129
1070;126
1071;126
1072;126
1073;126
1074;126
1075;126
1076;126
1077;126
1078;126
1079;121
1081;126
1082;255
1083;119
1083;239
1084;122
1085;122
1086;122
1087;122
1088;122
1089;126
1090;123
1091;112
1092;122
1093;122
1094;122
1095;122
1096;122
1097;123
1098;121
1099;112
1100;112
1101;121
1102;116
1103;116
1104;116
1105;247
1106;115
1107;115
1108;115
1109;115
1110;115
1111;23
1123;231
1124;131
1125;131
1126;131
1127;131
1128;131
1129;131
1130;131
1131;131
1132;131
1134;131
1135;131
1136;232
1137;232
1139;135
1140;135
1141;135
1142;135
1143;135
1144;135
1145;135
1146;135
1147;135
1148;136
1149;136
1150;136
1151;136
1152;136
1153;137
1154;137
1155;137
1156;137
1157;137
1158;137
1159;137
1160;138
1161;138
1162;138
1164;138
1165;139
1166;139
1167;140
1168;140
1169;140
1170;140
1171;141
1172;141
1173;142
1174;142
1175;142
1176;142
1177;142
1178;142
1179;142
1180;142
1181;142
1182;143
1183;143
1184;143
1185;143
1186;171
1187;171
1188;145
1189;145
1190;145
1191;145
1192;145
1193;145
1194;145
1195;145
1196;146
1197;146
1198;146
1199;147
1200;147
1201;147
1202;147
1203;147
1204;147
1205;147
1206;148
1207;148
1208;148
1209;148
1210;148
1211;148
1212;149
1213;149
1214;149
1215;149
1216;150
1217;150
1218;150
1219;150
1220;152
1221;152
1222;152
1223;152
1224;152
1225;152
1226;152
1227;152
1228;152
1229;152
1230;152
1231;152
1232;152
1233;152
1234;152
1235;152
1236;152
1237;153
1238;153
1239;153
1240;153
1241;153
1242;153
1243;153
1244;153
1245;153
1246;153
1247;154
1248;154
1249;154
1251;154
1252;156
1253;156
1254;156
1255;156
1256;156
1257;156
1258;156
1259;155
1260;155
1261;155
1262;155
1263;155
1264;155
1265;155
1266;155
1267;155
1268;155
1269;156
1270;156
1271;156
1272;156
1273;158
1274;158
1275;158
1276;158
1277;158
1278;162
1279;162
1280;162
1281;162
1282;162
1283;162
1284;162
1285;162
1286;162
1287;162
1288;162
1290;162
1291;162
1292;162
1293;162
1294;158
1295;162
1296;162
1297;158
1298;164
1299;164
1300;164
1301;164
1302;164
1303;164
1304;164
1305;164
1305;189
1306;164
1306;189
1307;164
1308;164
1309;165
1310;165
1311;165
1312;165
1313;165
1314;165
1315;165
1316;165
1317;241
1318;241
1319;241
1320;241
1321;241
1322;241
1323;242
1324;242
1325;242
1326;240
1327;240
1328;240
1329;240
1330;240
1331;240
1332;240
1333;240
1334;167
1335;167
1336;167
1337;167
1338;167
1339;167
1339;242
1340;167
1341;168
1342;168
1343;168
1344;168
1345;168
1346;168
1347;168
1348;168
1349;170
1350;170
1351;170
1352;170
1353;170
1354;170
1355;170
1356;170
1357;171
1358;171
1359;171
1360;171
1361;171
1362;171
1363;171
1364;171
1365;171
1366;171
1367;171
1368;171
1369;171
1370;171
1371;171
1372;171
1373;172
1374;172
1375;172
1376;172
1377;172
1378;172
1379;172
1380;173
1381;173
1382;173
1383;173
1384;173
1385;173
1386;174
1387;174
1388;174
1389;174
1390;174
1391;174
1392;174
1393;174
1394;174
1395;174
1396;174
1397;174
1398;174
1399;174
1400;174
1401;174
1402;174
1403;174
1404;174
1405;174
1406;174
1407;174
1408;174
1409;174
1410;174
1411;174
1412;174
1413;174
1414;174
1416;174
1417;174
1418;174
1419;174
1420;174
1421;174
1422;174
1423;174
1424;174
1425;174
1426;174
1427;174
1428;176
1429;176
1430;176
1431;176
1432;176
1433;176
1434;176
1435;176
1436;176
1437;176
1438;176
1439;176
1440;176
1441;176
1442;176
1443;179
1444;179
1445;179
1446;179
1447;179
1448;176
1449;176
1450;178
1451;178
1452;178
1453;178
1454;178
1455;177
1456;177
1457;177
1458;177
1459;180
1460;180
1461;180
1462;180
1463;180
1464;180
1465;180
1466;180
1467;180
1468;180
1469;180
1470;180
1471;180
1472;180
1473;180
1474;180
1475;183
1476;183
1477;183
1478;183
1479;183
1480;183
1481;183
1482;183
1483;184
1484;184
1485;184
1486;184
1487;184
1488;184
1489;184
1490;185
1491;185
1492;185
1493;185
1494;185
1495;185
1496;185
1497;185
1498;185
1499;185
1500;185
1501;185
1502;185
1503;185
1504;185
1505;185
1506;185
1507;185
1508;185
1509;185
1510;185
1511;185
1512;185
1513;185
1514;185
1515;185
1516;185
1517;185
1518;185
1519;185
1520;185
1521;185
1522;185
1523;185
1524;185
1525;185
1526;185
1527;185
1528;185
1529;185
1530;185
1531;185
1532;185
1533;185
1534;185
1535;186
1536;186
1537;187
1538;187
1539;187
1540;187
1541;187
1542;187
1543;187
1544;187
1545;187
1546;187
1547;188
1548;188
1549;188
1550;188
1551;188
1552;188
1553;188
1554;188
1555;188
1556;188
1557;188
1558;188
1559;188
1560;188
1561;188
1562;188
1563;188
1564;188
1565;188
1566;188
1567;188
1568;188
1569;188
1570;188
1571;188
1572;188
1573;188
1574;188
1575;188
1576;188
1577;188
1578;188
1579;188
1580;188
1581;188
1582;188
1583;188
1584;188
1585;188
1586;188
1587;188
1588;188
1589;188
1590;188
1591;188
1592;188
1593;188
1594;188
1595;188
1596;188
1597;188
1598;188
1599;188
1600;188
1601;188
1602;188
1603;188
1604;188
1605;188
1606;188
1607;188
1608;188
1609;188
1610;188
1611;188
1612;188
1613;188
1614;188
1615;188
1616;188
1617;188
1618;188
1619;192
1620;192
1621;192
1622;192
1623;192
1623;195
1624;192
1625;192
1626;192
1627;192
1628;192
1629;192
1630;192
1631;192
1632;192
1633;192
1634;192
1635;192
1636;192
1637;192
1638;192
1639;192
1640;192
1641;192
1642;192
1643;192
1644;192
1645;192
1646;192
1647;192
1648;192
1649;192
1649;195
1650;192
1650;195
1651;192
1651;195
1652;192
1652;195
1653;192
1654;192
1655;192
1656;192
1657;192
1658;192
1659;192
1660;192
1661;192
1662;192
1663;192
1664;192
1665;192
1666;192
1667;192
1668;192
1669;192
1670;192
1671;192
1672;192
1673;192
1674;192
1675;192
1676;192
1677;192
1678;192
1679;192
1680;192
1681;192
1682;192
1683;192
1684;192
1685;192
1686;192
1687;192
1688;192
1689;192
1690;192
1691;192
1692;192
1693;192
1694;192
1695;192
1696;192
1697;192
1698;192
1699;192
1700;192
1701;192
1702;192
1703;192
1704;192
1705;192
1706;192
1707;192
1708;192
1709;192
1710;192
1711;192
1712;192
1713;192
1714;192
1715;192
1716;192
1717;192
1717;195
1718;192
1719;192
1720;192
1721;192
1722;192
1723;192
1724;192
1725;192
1726;192
1727;192
1728;192
1729;192
1730;192
1731;192
1732;192
1733;192
1734;192
1735;192
1736;192
1737;192
1738;192
1739;192
1740;192
1741;192
1742;192
1743;192
1744;192
1745;192
1746;192
1747;192
1748;192
1749;192
1749;195
1750;192
1751;192
1752;192
1753;192
1754;192
1754;195
1755;192
1755;195
1756;192
1756;195
1757;192
1758;192
1759;192
1760;192
1761;192
1762;192
1763;192
1764;192
1765;192
1766;192
1767;192
1768;192
1769;192
1769;195
1770;192
1771;192
1772;192
1773;192
1774;192
1775;192
1776;192
1777;192
1778;192
1779;192
1780;192
1781;192
1782;192
1783;192
1784;192
1785;192
1786;192
1786;195
1787;192
1787;195
1788;192
1788;195
1789;192
1789;195
1790;192
1791;192
1792;192
1793;192
1794;192
1795;192
1796;192
1797;192
1798;192
1799;192
1800;192
1801;192
1802;192
1803;192
1804;192
1805;192
1806;192
1807;192
1808;192
1809;192
1810;192
1811;192
1812;192
1813;192
1814;192
1815;192
1816;192
1817;192
1818;192
1819;192
1820;192
1821;192
1822;192
1823;192
1824;192
1825;192
1826;192
1827;192
1828;192
1829;192
1830;192
1831;192
1832;192
1833;192
1834;192
1835;192
1836;192
1837;192
1838;192
1839;192
1840;192
1841;192
1842;192
1843;192
1844;192
1845;192
1846;192
1847;192
1848;192
1849;192
1850;192
1851;192
1852;192
1853;192
1854;189
1855;189
1856;189
1857;189
1858;189
1859;189
1860;189
1861;189
1862;189
1863;189
1864;189
1865;189
1866;189
1867;189
1868;189
1869;189
1870;189
1871;189
1872;189
1873;189
1874;189
1875;189
1876;189
1877;190
1878;190
1879;190
1880;190
1881;190
1882;190
1883;190
1884;190
1885;190
1886;190
1887;190
1888;190
1889;190
1889;195
1890;190
1891;190
1892;190
1893;190
1894;190
1895;190
1896;190
1896;195
1897;190
1898;190
1899;190
1900;190
1901;190
1902;190
1903;190
1904;190
1905;190
1906;190
1907;190
1908;190
1909;190
1910;190
1911;190
1912;190
1913;190
1913;195
1914;190
1914;195
1915;190
1915;195
1916;190
1916;195
1917;190
1917;195
1918;190
1918;195
1919;190
1919;195
1920;190
1920;195
1921;190
1921;195
1922;190
1922;195
1923;190
1924;190
1925;190
1926;190
1927;190
1928;190
1929;190
1930;190
1931;190
1932;190
1933;190
1934;190
1935;190
1936;190
1937;190
1938;190
1939;190
1940;190
1941;190
1942;190
1943;190
1944;190
1945;190
1946;190
1947;190
1948;190
1949;190
1950;190
1951;190
1952;190
1953;190
1954;190
1955;190
1956;190
1957;190
1958;190
1959;190
1960;190
1961;190
1962;190
1963;190
1964;190
1965;190
1966;190
1967;190
1968;190
1969;190
1970;190
1971;190
1972;191
1973;191
1974;191
1976;191
1977;191
1978;191
1979;191
1980;191
1981;191
1982;191
1983;191
1984;191
1985;191
1986;191
1987;191
1988;191
1989;191
1990;191
1991;191
1992;191
1993;191
1994;191
1995;191
1996;191
1997;191
1998;191
1999;191
2000;191
2001;191
2002;191
2003;191
2004;191
2005;191
2006;191
2007;191
2008;191
2009;191
2010;191
2011;191
2012;191
2013;191
2014;191
2015;191
2016;191
2017;191
2018;191
2019;191
2020;191
2021;191
2022;191
2023;191
2024;191
2025;191
2026;191
2027;191
2028;191
2029;191
2030;191
2031;191
2032;191
2033;191
2034;191
2035;191
2036;191
2037;191
2038;191
2039;191
2040;191
2041;191
2042;191
2047;191
2048;191
2049;191
2050;191
2051;193
2052;193
2053;193
2054;193
2055;193
2056;193
2057;193
2058;193
2059;193
2060;193
2061;193
2062;193
2063;193
2064;193
2065;193
2066;193
2067;193
2068;193
2069;193
2070;193
2071;193
2072;193
2073;193
2074;193
2075;193
2076;193
2077;193
2078;193
2079;193
2080;193
2081;193
2082;193
2083;193
2084;193
2085;193
2086;193
2087;193
2088;193
2089;193
2090;193
2091;193
2092;193
2093;193
2094;193
2095;193
2096;193
2097;193
2098;193
2099;193
2100;193
2101;193
2102;193
2103;193
2104;193
2105;193
2106;193
2107;193
2108;193
2109;193
2110;193
2111;193
2112;193
2113;193
2114;193
2115;193
2116;193
2117;193
2118;193
2119;193
2120;193
2121;193
2122;193
2123;193
2124;193
2125;193
2126;193
2127;193
2128;193
2129;193
2130;193
2131;193
2132;193
2133;193
2134;193
2135;193
2136;193
2137;193
2138;193
2139;193
2140;193
2141;193
2142;193
2143;193
2144;193
2145;193
2146;193
2147;193
2148;193
2149;193
2150;193
2151;193
2152;193
2153;193
2154;193
2155;193
2156;193
2157;194
2158;194
2159;194
2160;194
2161;194
2162;194
2163;194
2164;194
2165;194
2166;194
2167;194
2168;195
2169;195
2170;195
2171;195
2172;195
2173;195
2174;195
2175;195
2176;195
2177;195
2178;195
2179;195
2180;195
2181;195
2182;195
2183;195
2184;195
2185;195
2186;195
2187;195
2188;195
2189;196
2190;196
2191;196
2192;196
2193;196
2194;197
2195;197
2196;197
2197;197
2198;197
2199;197
2200;197
2201;197
2202;197
2203;197
2204;197
2205;197
2206;197
2207;197
2208;197
2209;197
2210;197
2211;199
2212;197
2213;199
2214;202
2215;202
2216;202
2217;202
2218;202
2219;202
2220;202
2221;202
2222;202
2223;202
2224;202
2225;202
2226;202
2227;202
2228;202
2228;256
2229;202
2230;202
2231;202
2231;256
2232;202
2232;256
2233;202
2234;202
2235;202
2236;202
2237;200
2238;200
2239;200
2240;200
2241;200
2242;200
2243;200
2244;200
2245;201
2246;201
2247;201
2248;201
2249;201
2250;201
2251;201
2252;201
2253;201
2254;201
2255;201
2256;203
2257;203
2258;203
2259;203
2260;203
2261;203
2262;203
2263;203
2264;203
2265;203
2266;203
2267;204
2268;204
2269;204
2269;256
2270;204
2270;256
2271;204
2271;256
2272;204
2272;256
2273;204
2273;256
2274;204
2274;256
2275;204
2275;256
2277;204
2277;256
2278;204
2278;256
2279;204
2279;256
2280;204
2281;206
2282;206
2283;206
2284;206
2285;206
2286;206
2287;206
2288;206
2289;207
2290;207
2291;207
2292;207
2293;207
2294;207
2295;207
2296;207
2297;207
2298;208
2299;208
2300;208
2301;208
2302;243
2303;243
2304;243
2305;208
2306;208
2307;208
2308;212
2310;212
2311;212
2312;212
2313;212
2314;212
2315;212
2316;212
2317;212
2318;212
2320;213
2321;213
2322;213
2323;215
2324;215
2325;215
2326;215
2327;215
2328;215
2329;215
2330;216
2331;216
2332;216
2333;216
2334;216
2335;216
2336;216
2337;216
2338;216
2339;216
2340;216
2341;216
2342;211
2344;214
2345;214
2346;214
2347;214
2348;214
2349;214
2350;213
2351;213
2352;213
2353;213
2354;215
2355;215
2356;216
2357;216
2358;216
2359;216
2360;216
2361;216
2362;215
2363;214
2364;214
2365;214
2366;214
2367;214
2368;209
2368;210
2369;209
2369;210
2370;209
2370;210
2371;209
2371;210
2372;209
2372;210
2373;209
2373;210
2374;209
2374;210
2375;209
2375;210
2376;209
2376;210
2377;209
2377;210
2378;209
2378;210
2379;209
2379;210
2380;209
2380;210
2381;209
2381;210
2385;215
2386;216
2387;212
2388;217
2389;217
2390;217
2391;217
2392;217
2393;217
2394;217
2395;217
2396;217
2397;217
2398;217
2399;217
2400;217
2401;217
2402;217
2403;217
2404;217
2405;217
2406;217
2407;217
2408;217
2409;217
2410;217
2411;217
2412;218
2413;218
2414;218
2415;218
2416;218
2417;218
2418;218
2420;218
2421;218
2422;218
2423;218
2424;219
2425;219
2426;219
2427;219
2428;219
2429;219
2430;219
2431;219
2432;219
2433;219
2434;219
2435;219
2436;219
2437;221
2438;221
2439;221
2440;221
2441;221
2442;221
2443;221
2444;221
2445;221
2446;221
2447;221
2448;221
2449;221
2450;221
2451;221
2452;221
2453;221
2454;221
2455;222
2456;222
2457;222
2458;222
2459;222
2460;222
2461;222
2462;222
2462;256
2463;223
2464;223
2466;223
2467;224
2468;224
2469;224
2470;224
2471;224
2472;224
2473;224
2474;227
2475;227
2476;227
2477;227
2478;227
2479;227
2480;227
2481;227
2482;227
2483;227
2484;227
2485;227
2486;227
2487;227
2488;227
2489;227
2490;227
2491;227
2492;227
2493;227
2494;227
2495;227
2496;227
2497;227
2498;227
2499;227
2500;227
2501;227
2502;227
2503;227
2504;227
2505;227
2506;227
2507;227
2508;227
2509;227
2510;227
2511;227
2512;227
2513;227
2514;227
2515;227
2516;227
2517;227
2518;227
2519;227
2520;227
2521;227
2522;227
2523;227
2524;228
2525;228
2526;228
2527;228
2528;228
2529;228
2530;228
2531;228
2532;229
2533;229
2534;229
2535;229
2536;229
2537;229
2538;229
2539;229
2540;229
2541;229
2542;229
2543;229
2544;229
2545;229
2546;229
2547;229
2548;229
2549;229
2550;229
2551;229
2552;229
2553;229
2554;230
2555;230
2556;230
2557;230
2558;230
2559;230
2560;230
2561;230
2562;230
2563;230
2564;230
2565;230
2566;230
2567;230
2568;230
2569;230
2570;230
2571;230
2572;230
2573;230
2574;230
2575;230
2576;230
2577;230
2578;230
2579;230
2580;230
2581;230
2582;230
2583;230
2584;230
2585;230
2586;230
2587;230
2588;230
2589;230
2590;230
2591;230
2592;230
2593;230
2594;230
2595;230
2596;230
2597;230
2598;230
2599;230
2600;230
2601;230
2602;230
2603;230
2604;230
2605;230
2606;230
2607;230
2608;230
2609;230
2610;230
2611;230
2612;230
2613;230
2614;230
2615;230
2616;230
2617;230
2618;230
2619;230
2620;230
2621;230
2622;230
2623;230
2624;230
2625;230
2626;230
2627;230
2628;230
2629;230
2630;230
2631;230
2632;230
2633;230
2634;230
2635;230
2636;230
2637;230
2638;230
2639;230
2640;230
2641;230
2642;230
2643;230
2644;230
2645;230
2646;230
2647;230
2648;230
2649;230
2650;230
2651;230
2652;230
2653;230
2654;230
2655;230
2656;230
2657;230
2658;230
2659;230
2660;230
2661;230
2662;230
2663;230
2664;244
2665;244
2666;244
2667;231
2668;231
2669;23
2671;23
2672;23
2673;23
2674;46
2675;46
2676;247
2677;247
2678;247
2679;247
2680;247
2681;247
2682;247
2683;247
2684;228
2685;221
2686;10
2687;10
2688;116
2689;23
2689;256
2690;200
2691;200
2692;200
2693;200
2694;88
2695;34
2695;90
2696;34
2696;90
2697;23
2698;23
2699;23
2700;23
2701;23
2702;42
2703;94
2704;33
2704;81
2705;54
2706;54
2707;33
2708;30
2710;33
2711;20
2712;248
2713;248
2714;248
2715;248
2716;35
2717;225
2718;90
2719;54
2720;244
2721;244
2722;244
2723;244
2724;244
2725;244
2726;122
2727;122
2729;244
2730;244
2731;244
2732;244
2733;244
2737;93
2738;249
2739;199
2739;249
2740;249
2741;249
2742;244
2743;229
2744;10
2745;88
2746;88
2747;88
2748;49
2748;88
2748;290
2749;254
2750;264
2751;90
2752;89
2753;108
2754;127
2755;127
2756;255
2757;227
2758;227
2759;227
2760;227
2761;227
2762;227
2763;227
2764;227
2765;227
2766;227
2767;227
2768;227
2769;227
2770;227
2771;227
2772;227
2773;227
2774;227
2775;227
2776;227
2777;227
2778;227
2779;227
2780;227
2781;227
2782;116
2783;189
2784;189
2785;231
2786;231
2787;176
2788;249
2789;249
2790;249
2791;249
2792;249
2793;44
2794;231
2795;231
2796;22
2797;44
2798;22
2799;249
2800;249
2801;197
2802;22
2803;118
2804;21
2804;256
2805;69
2806;69
2807;249
2808;76
2809;76
2810;200
2811;200
2812;200
2813;200
2814;200
2815;200
2816;258
2817;258
2818;258
2819;259
2820;259
2821;260
2822;260
2823;260
2824;260
2825;260
2826;260
2827;260
2828;260
2829;260
2830;261
2831;261
2832;261
2833;262
2834;262
2848;259
2849;259
2850;259
2851;259
2852;259
2853;263
2854;259
2855;263
2856;259
2857;258
2858;259
2859;263
2860;258
2861;260
2862;263
2863;263
2864;263
2865;263
2866;262
2867;42
2868;42
2869;228
2869;249
2871;106
2872;131
2873;268
2874;268
2875;268
2876;228
2877;265
2878;265
2879;265
2880;265
2881;265
2882;92
2883;264
2884;264
2885;264
2886;264
2887;93
2888;264
2889;264
2890;264
2891;264
2892;264
2893;102
2893;264
2894;89
2899;93
2900;93
2901;259
2902;259
2903;247
2903;269
2904;247
2904;269
2905;266
2905;267
2906;266
2906;267
2907;266
2907;267
2908;266
2908;267
2909;266
2909;267
2910;266
2910;267
2911;266
2911;267
2912;266
2912;267
2913;199
2914;199
2915;199
2916;199
2917;199
2918;199
2919;199
2924;174
2925;174
2926;174
2927;174
2928;45
2929;90
2930;93
2931;88
2932;93
2933;93
2934;181
2935;116
2936;119
2937;119
2939;278
2940;2
2941;90
2941;280
2942;202
2943;202
2944;98
2945;105
2946;44
2947;44
2948;58
2949;88
2950;42
2951;58
2952;58
2953;42
2954;136
2955;136
2956;138
2958;46
2958;197
2959;46
2960;39
2961;39
2962;39
2963;35
2964;35
2965;136
2966;89
2968;58
2969;174
2970;174
2971;174
2972;174
2973;167
2974;149
2975;25
2976;255
2977;23
2978;268
2979;268
2980;176
2981;269
2982;269
2983;176
2984;176
2985;11
2986;11
2987;11
2988;11
2989;11
2990;11
2991;122
2992;122
2993;244
2994;244
2995;244
2996;244
2997;244
2998;244
2999;244
3000;107
3001;99
3001;252
3002;252
3002;270
3003;252
3003;270
3004;252
3004;270
3005;252
3005;270
3006;252
3006;270
3007;252
3007;270
3008;252
3008;270
3009;252
3009;270
3010;252
3010;270
3011;252
3011;270
3012;252
3012;270
3013;252
3013;270
3014;243
3015;104
3015;252
3015;270
3016;272
3016;276
3017;271
3017;273
3018;272
3019;272
3019;276
3020;274
3021;272
3021;276
3022;273
3022;275
3023;271
3023;272
3024;273
3024;276
3025;272
3025;276
3026;273
3027;273
3028;227
3029;174
3030;212
3031;212
3032;191
3033;191
3034;191
3036;30
3041;102
3042;102
3043;104
3044;104
3045;102
3046;102
3047;102
3099;30
3100;30
3101;30
3102;30
3103;30
3104;30
3105;30
3106;44
3107;44
3109;44
3110;44
3111;44
3112;44
3113;44
3114;44
3115;99
3116;99
3117;105
3118;105
3119;43
3120;103
3121;103
3122;99
3123;102
3124;107
3125;44
3126;274
3127;43
3128;271
3129;273
3130;273
3131;273
3132;103
3133;273
3134;272
3135;272
3136;44
3137;272
3138;272
3139;44
3140;44
3141;174
3142;100
3143;102
3144;213
3145;213
3146;213
3147;213
3148;174
3149;212
3150;102
3151;103
3152;243
3153;243
3154;103
3155;105
3156;243
3157;94
3158;44
3159;100
3160;99
3161;99
3162;103
3162;256
3163;202
3163;256
3164;203
3165;104
3166;105
3167;105
3168;106
3169;103
3169;106
3170;93
3171;106
3172;93
3173;43
3174;43
3175;106
3176;106
3177;107
3177;290
3178;107
3179;107
3180;107
3181;107
3182;107
3183;107
3184;107
3185;107
3186;93
3187;256
3187;278
3188;93
3189;256
3189;278
3190;278
3191;42
3192;100
3193;45
3194;100
3196;102
3197;102
3198;105
3199;106
3200;106
3201;107
3203;279
3204;279
3205;279
3206;32
3206;225
3207;14
3207;33
3208;106
3209;88
3210;90
3211;35
3212;51
3213;89
3214;90
3214;280
3215;90
3216;280
3217;90
3217;280
3218;34
3219;90
3219;281
3220;223
3221;223
3222;80
3222;223
3223;223
3224;53
3224;223
3225;90
3225;280
3226;90
3226;280
3227;90
3227;280
3228;90
3228;280
3229;90
3229;280
3230;90
3230;280
3231;90
3231;281
3232;89
3233;35
3234;34
3234;90
3235;108
3236;108
3237;270
3239;270
3240;90
3241;104
3242;89
3243;34
3244;35
3245;193
3246;253
3246;264
3247;253
3247;264
3252;34
3256;200
3257;283
3258;284
3259;284
3260;284
3261;284
3262;284
3263;284
3264;283
3265;283
3266;284
3267;283
3268;284
3269;284
3270;283
3271;284
3272;284
3273;283
3274;283
3275;283
3276;283
3277;284
3278;284
3279;284
3280;284
3281;284
3282;284
3283;284
3284;283
3285;284
3286;200
3287;284
3288;284
3289;284
3290;284
3291;283
3292;283
3293;284
3294;284
3295;284
3296;284
3297;283
3298;284
3299;283
3300;284
3301;283
3302;283
3303;284
3304;284
3305;284
3306;283
3307;283
3308;283
3309;283
3310;283
3311;283
3312;284
3313;284
3314;200
3315;200
3316;200
3317;200
3320;102
3320;252
3320;270
3321;102
3321;252
3321;270
3327;100
3327;252
3327;270
3331;258
3332;259
3333;259
3334;103
3334;252
3334;270
3335;103
3335;252
3335;270
3336;101
3336;252
3336;270
3337;103
3337;106
3337;252
3337;270
3338;260
3339;260
3340;260
3341;260
3342;260
3343;260
3344;260
3345;260
3346;260
3347;261
3348;263
3349;263
3350;102
3350;252
3350;270
3351;100
3352;42
3353;90
3353;280
3354;90
3355;104
3356;108
3356;270
3357;108
3358;108
3359;44
3360;108
3360;253
3361;278
3362;102
3363;280
3364;280
3365;44
3366;280
3367;90
3367;280
3369;259
3370;263
3371;45
3372;200
3373;200
3374;200
3375;51
3375;225
3376;108
3377;280
3378;280
3379;89
3380;44
3381;280
3382;107
3382;278
3383;193
3384;256
3384;278
3385;14
3386;14
3387;14
3388;17
3389;17
3390;17
3391;17
3392;202
3393;202
3394;202
3395;2
3396;193
3397;193
3398;193
3399;193
3400;202
3401;136
3402;136
3403;136
3404;136
3405;58
3406;130
3407;130
3408;130
3409;183
3410;183
3411;183
3412;183
3413;183
3414;174
3415;174
3416;122
3417;122
3418;105
3419;243
3420;243
3421;243
3422;208
3423;208
3424;213
3425;244
3426;244
3427;23
3428;23
3429;241
3430;241
3431;241
3432;241
3433;130
3434;130
3435;130
3436;107
3436;278
3437;99
3437;107
3438;105
3438;107
3439;89
3440;35
3441;89
3442;35
3443;107
3443;278
3444;53
3445;99
3446;287
3447;287
3448;287
3449;287
3450;63
3451;63
3452;63
3453;63
3454;63
3455;284
3456;284
3457;283
3458;283
3459;165
3460;165
3461;165
3462;165
3463;165
3464;165
3465;174
3465;179
3465;194
3466;174
3466;183
3466;255
3467;145
3467;147
3467;158
3468;129
3469;284
3470;284
3471;58
3471;276
3471;284
3472;89
3473;90
3473;280
3474;51
3474;153
3474;225
3474;290
3475;56
3475;85
3475;225
3476;54
3477;45
3477;90
3477;94
3477;264
3478;80
3478;223
3479;80
3479;223
3480;80
3480;223
3481;284
3482;177
3483;177
3484;107
3484;278
3485;231
3486;231
3487;231
3488;231
3489;231
3490;231
3491;288
3492;288
3493;288
3494;288
3495;255
3496;93
3497;173
3497;177
3498;45
3499;46
3499;280
3500;89
3501;269
3502;202
3504;34
3504;90
3505;43
3506;287
3507;287
3508;203
3509;203
3510;216
3511;143
3512;143
3513;202
3514;69
3515;17
3516;17
3517;17
3518;17
3519;80
3519;223
3520;174
3521;268
3522;268
3523;227
3524;165
3526;282
3527;282
3528;282
3529;282
3530;282
3531;282
3532;282
3533;282
3534;282
3535;282
3536;282
3537;282
3538;66
3539;66
3540;66
3541;66
3542;66
3543;66
3544;66
3545;66
3546;66
3547;66
3548;66
3549;66
3550;66
3551;66
3552;66
3553;66
3554;66
3555;67
3556;67
3557;67
3558;67
3559;67
3560;67
3561;67
3562;67
3563;67
3564;67
3565;67
3566;67
3567;67
3568;67
3569;67
3570;67
3571;67
3572;67
3573;67
3574;67
3575;67
3576;67
3577;67
3578;67
3579;67
3580;67
3581;67
3582;67
3583;67
3584;67
3585;67
3586;67
3587;67
3588;67
3589;67
3590;67
3591;67
3592;67
3593;67
3594;67
3595;67
3596;67
3597;67
3598;67
3599;67
3600;67
3601;67
3602;67
3603;67
3604;67
3605;67
3606;67
3607;67
3608;67
3609;67
3610;67
3611;67
3612;67
3613;67
3614;67
3615;67
3616;67
3617;67
3618;67
3619;67
3620;67
3621;67
3622;67
3623;67
3624;67
3625;58
3625;67
3626;67
3627;103
3627;106
3627;252
3627;270
3628;152
3629;176
3630;93
3631;259
3632;259
3633;259
3634;260
3635;260
3636;260
3637;105
3637;256
3638;224
3639;153
3640;89
3640;290
3641;92
3641;290
3642;102
3642;107
3643;56
3644;106
3645;152
3645;225
3646;152
3646;225
3647;152
3647;225
3648;152
3648;225
3649;152
3649;225
3650;153
3650;225
3651;153
3651;225
3652;153
3652;225
3653;152
3653;225
3654;152
3654;225
3655;152
3655;225
3656;99
3656;101
3656;105
3657;14
3657;75
3658;14
3658;75
3659;14
3659;75
3660;284
3661;284
3662;46
3663;33
3664;46
3665;14
3665;75
3666;75
3667;89
3668;92
3668;290
3669;92
3669;290
3670;185
3671;185
3672;185
3673;185
3674;185
3675;14
3675;75
3676;14
3676;75
3677;14
3677;75
3678;14
3678;75
3679;14
3679;75
3680;14
3680;75
3681;14
3681;75
3682;14
3682;75
3683;14
3683;75
3684;14
3684;75
3685;14
3685;75
3686;14
3686;75
3687;14
3687;75
3688;75
3689;199
3690;62
3691;164
3692;35
3693;136
3694;93
3694;290
3695;23
3695;165
3696;23
3696;165
3697;90
3697;280
3698;56
3698;85
3698;290
3699;284
3700;51
3700;153
3700;225
3700;290
3701;165
3702;165
3703;165
3704;165
3705;165
3706;165
3707;35
